<svg xmlns="http://www.w3.org/2000/svg" width="19.357" height="11.741" viewBox="0 0 19.357 11.741">
  <g id="Group_598" data-name="Group 598" transform="translate(0 11.069) rotate(-90)">
    <line id="Line_27" data-name="Line 27" y2="17.208" transform="translate(5.315)" fill="none" stroke="#cc4b37" stroke-miterlimit="10" stroke-width="2"/>
    <path id="Path_352" data-name="Path 352" d="M10.362,0,5.433,4.93,0,0" transform="translate(0 13.046)" fill="none" stroke="#cc4b37" stroke-miterlimit="10" stroke-width="2"/>
  </g>
</svg>
