<svg id="Group_623" data-name="Group 623" xmlns="http://www.w3.org/2000/svg" width="23" height="17" viewBox="0 0 23 17">
  <rect id="Rectangle_1387" data-name="Rectangle 1387" width="23" height="3" fill="#bfd103"/>
  <rect id="Rectangle_1388" data-name="Rectangle 1388" width="19" height="3" transform="translate(2 7)" fill="#bfd103"/>
  <rect id="Rectangle_1389" data-name="Rectangle 1389" width="14" height="3" transform="translate(5 14)" fill="#bfd103"/>
</svg>
