<svg xmlns="http://www.w3.org/2000/svg" width="63" height="36" viewBox="0 0 63 36">
  <title>square_grid_lightblue</title>
  <g id="Layer_2" data-name="Layer 2">
    <rect width="63" height="36" style="fill: none"/>
    <g style="opacity: 0.35000000000000003">
      <line x1="0.5" y1="35.5" x2="62.5" y2="0.5" style="fill: #fff;stroke: #3fc9e6;stroke-miterlimit: 10"/>
      <line x1="0.5" y1="0.5" x2="62.5" y2="35.5" style="fill: #fff;stroke: #3fc9e6;stroke-miterlimit: 10"/>
    </g>
  </g>
</svg>
