<svg xmlns="http://www.w3.org/2000/svg" width="63" height="36" viewBox="0 0 63 36">
  <title>square_grid_green</title>
  <g id="Layer_2" data-name="Layer 2">
    <g style="opacity: 0.4">
      <line y1="35.78" x2="63" y2="0.22" style="fill: #fff;stroke: #fff;stroke-miterlimit: 10"/>
      <line y1="0.22" x2="63" y2="35.78" style="fill: #fff;stroke: #fff;stroke-miterlimit: 10"/>
    </g>
  </g>
</svg>
